Sequence Analysis - Companion Site: Visualizing sequences
…
If you want to access the data used for the plot you can save the
plot as a list object:

dplot <- ggseqdplot(partner.child.year.seq,
                    group = as_factor(family$sex), 
                    weighted = FALSE)

dplot$data

# A tibble: 396 x 6
   group  state            k        x     value grouplab       
   <fct>  <fct>            <fct>    <fct> <dbl> <glue>         
 1 Female Single, no child state1   1     0.494 Female (n=1039)
 2 Female Single, no child state13  2     0.409 Female (n=1039)
 3 Female Single, no child state25  3     0.330 Female (n=1039)
 4 Female Single, no child state37  4     0.276 Female (n=1039)
 5 Female Single, no child state49  5     0.244 Female (n=1039)
 6 Female Single, no child state61  6     0.218 Female (n=1039)
 7 Female Single, no child state73  7     0.183 Female (n=1039)
 8 Female Single, no child state85  8     0.140 Female (n=1039)
 9 Female Single, no child state97  9     0.133 Female (n=1039)
10 Female Single, no child state109 10    0.122 Female (n=1039)
# ... with 386 more rows
…
